{"idDrone":4,"niveauBatterie":78,"droneAltitude":29,"vitesse":64,"espaceDisque":4744,"villeEtude":"NJ","temperature":38,"time":1571304142677,"identifiable":false,"plaqueIdentifier":"GBB9093","violationCode":19,"summonsNumber":"1283983734","emplacement":{"latitude":64.09678595764586,"longitude":13.247406048398876}}
{"idDrone":4,"niveauBatterie":76,"droneAltitude":32,"vitesse":51,"espaceDisque":4738,"villeEtude":"VF","temperature":38,"time":1571304142677,"identifiable":true,"plaqueIdentifier":"40793JY","violationCode":78,"summonsNumber":"1286282342","emplacement":{"latitude":64.95278251046682,"longitude":13.385436831117795}}
{"idDrone":4,"niveauBatterie":74,"droneAltitude":34,"vitesse":29,"espaceDisque":4724,"villeEtude":"OL","temperature":38,"time":1571304142677,"identifiable":true,"plaqueIdentifier":"WBJ819","violationCode":14,"summonsNumber":"1283294217","emplacement":{"latitude":65.6512383326126,"longitude":13.773422368639835}}
{"idDrone":4,"niveauBatterie":72,"droneAltitude":35,"vitesse":57,"espaceDisque":4718,"villeEtude":"NE","temperature":38,"time":1571304142677,"identifiable":false,"plaqueIdentifier":"XZ764G","violationCode":99,"summonsNumber":"1286248000","emplacement":{"latitude":65.67872449430389,"longitude":14.166471454087977}}
{"idDrone":4,"niveauBatterie":70,"droneAltitude":36,"vitesse":63,"espaceDisque":4675,"villeEtude":"RI","temperature":38,"time":1571304142677,"identifiable":true,"plaqueIdentifier":"GFC5338","violationCode":43,"summonsNumber":"1283983734","emplacement":{"latitude":66.5711562070154,"longitude":14.565673314122074}}
{"idDrone":4,"niveauBatterie":68,"droneAltitude":38,"vitesse":21,"espaceDisque":4638,"villeEtude":"CT","temperature":38,"time":1571304142677,"identifiable":true,"plaqueIdentifier":"62416MB","violationCode":53,"summonsNumber":"1283983825","emplacement":{"latitude":67.47675891103586,"longitude":15.049330407526524}}
{"idDrone":4,"niveauBatterie":66,"droneAltitude":42,"vitesse":56,"espaceDisque":4631,"villeEtude":"MA","temperature":38,"time":1571304142677,"identifiable":false,"plaqueIdentifier":"63009MA","violationCode":66,"summonsNumber":"1283294175","emplacement":{"latitude":67.8297577701206,"longitude":15.113998251835381}}
{"idDrone":4,"niveauBatterie":64,"droneAltitude":43,"vitesse":42,"espaceDisque":4601,"villeEtude":"VP","temperature":38,"time":1571304142677,"identifiable":false,"plaqueIdentifier":"GEN8674","violationCode":34,"summonsNumber":"1286246398","emplacement":{"latitude":67.85973180917209,"longitude":15.7625749529337}}
{"idDrone":4,"niveauBatterie":62,"droneAltitude":46,"vitesse":60,"espaceDisque":4560,"villeEtude":"AS","temperature":38,"time":1571304142677,"identifiable":false,"plaqueIdentifier":"GAC2703","violationCode":82,"summonsNumber":"1283294187","emplacement":{"latitude":68.01559957643455,"longitude":16.105350856987755}}
{"idDrone":4,"niveauBatterie":60,"droneAltitude":49,"vitesse":37,"espaceDisque":4560,"villeEtude":"99","temperature":38,"time":1571304142677,"identifiable":false,"plaqueIdentifier":"815M342","violationCode":19,"summonsNumber":"1283294138","emplacement":{"latitude":68.81275851443854,"longitude":16.594405989174653}}
{"idDrone":4,"niveauBatterie":58,"droneAltitude":53,"vitesse":34,"espaceDisque":4537,"villeEtude":"PA","temperature":38,"time":1571304142677,"identifiable":false,"plaqueIdentifier":"WBJ819","violationCode":23,"summonsNumber":"1286246398","emplacement":{"latitude":69.14540450202573,"longitude":17.176356558740917}}
{"idDrone":4,"niveauBatterie":56,"droneAltitude":56,"vitesse":39,"espaceDisque":4492,"villeEtude":"MD","temperature":38,"time":1571304142677,"identifiable":false,"plaqueIdentifier":"GBH9379","violationCode":55,"summonsNumber":"1283294138","emplacement":{"latitude":70.09659653867215,"longitude":18.05715549186482}}
{"idDrone":4,"niveauBatterie":54,"droneAltitude":59,"vitesse":72,"espaceDisque":4461,"villeEtude":"NJ","temperature":38,"time":1571304142677,"identifiable":true,"plaqueIdentifier":"YZY6476","violationCode":75,"summonsNumber":"1283983679","emplacement":{"latitude":70.3876864399083,"longitude":18.5368627675202}}
{"idDrone":4,"niveauBatterie":52,"droneAltitude":60,"vitesse":54,"espaceDisque":4456,"villeEtude":"JK","temperature":38,"time":1571304142677,"identifiable":true,"plaqueIdentifier":"WBJ819","violationCode":46,"summonsNumber":"1286246398","emplacement":{"latitude":70.40233166762519,"longitude":19.111428186015864}}
{"idDrone":4,"niveauBatterie":50,"droneAltitude":63,"vitesse":49,"espaceDisque":4442,"villeEtude":"PA","temperature":38,"time":1571304142677,"identifiable":false,"plaqueIdentifier":"62416MB","violationCode":24,"summonsNumber":"1283294187","emplacement":{"latitude":70.44795522676844,"longitude":19.244614982145375}}
{"idDrone":4,"niveauBatterie":48,"droneAltitude":67,"vitesse":45,"espaceDisque":4417,"villeEtude":"MP","temperature":38,"time":1571304142677,"identifiable":true,"plaqueIdentifier":"M367CN","violationCode":19,"summonsNumber":"1283294187","emplacement":{"latitude":71.41836561280184,"longitude":19.96465629562549}}
{"idDrone":4,"niveauBatterie":46,"droneAltitude":71,"vitesse":57,"espaceDisque":4407,"villeEtude":"RI","temperature":38,"time":1571304142677,"identifiable":true,"plaqueIdentifier":"T60DAR","violationCode":46,"summonsNumber":"1286036800","emplacement":{"latitude":72.31580654680575,"longitude":20.784928470119198}}
{"idDrone":4,"niveauBatterie":44,"droneAltitude":74,"vitesse":70,"espaceDisque":4400,"villeEtude":"BF","temperature":38,"time":1571304142677,"identifiable":true,"plaqueIdentifier":"T60DAR","violationCode":75,"summonsNumber":"1286282330","emplacement":{"latitude":72.6971761552705,"longitude":21.062816915993523}}
{"idDrone":4,"niveauBatterie":42,"droneAltitude":75,"vitesse":21,"espaceDisque":4381,"villeEtude":"JK","temperature":38,"time":1571304142677,"identifiable":false,"plaqueIdentifier":"815M342","violationCode":55,"summonsNumber":"1283294175","emplacement":{"latitude":73.44141488736496,"longitude":21.65767370344184}}
{"idDrone":4,"niveauBatterie":40,"droneAltitude":76,"vitesse":59,"espaceDisque":4354,"villeEtude":"HF","temperature":38,"time":1571304142677,"identifiable":true,"plaqueIdentifier":"GCR2838","violationCode":95,"summonsNumber":"1283983771","emplacement":{"latitude":74.23336080297538,"longitude":22.18155670104037}}
{"idDrone":4,"niveauBatterie":38,"droneAltitude":78,"vitesse":48,"espaceDisque":4307,"villeEtude":"AS","temperature":38,"time":1571304142677,"identifiable":true,"plaqueIdentifier":"GAC2703","violationCode":99,"summonsNumber":"1283294217","emplacement":{"latitude":74.7743929060275,"longitude":22.658187227039186}}
{"idDrone":4,"niveauBatterie":36,"droneAltitude":82,"vitesse":67,"espaceDisque":4294,"villeEtude":"JK","temperature":38,"time":1571304142677,"identifiable":false,"plaqueIdentifier":"YZY6476","violationCode":85,"summonsNumber":"1283983825","emplacement":{"latitude":75.70998620371891,"longitude":23.241323989213328}}
{"idDrone":4,"niveauBatterie":34,"droneAltitude":83,"vitesse":51,"espaceDisque":4274,"villeEtude":"VF","temperature":38,"time":1571304142677,"identifiable":false,"plaqueIdentifier":"T60DAR","violationCode":12,"summonsNumber":"1283294217","emplacement":{"latitude":75.92828796066269,"longitude":23.809492442543092}}
{"idDrone":4,"niveauBatterie":32,"droneAltitude":87,"vitesse":45,"espaceDisque":4266,"villeEtude":"NE","temperature":38,"time":1571304142677,"identifiable":false,"plaqueIdentifier":"YZY6476","violationCode":12,"summonsNumber":"1283294229","emplacement":{"latitude":76.33979609524316,"longitude":24.236299923215405}}
{"idDrone":4,"niveauBatterie":30,"droneAltitude":91,"vitesse":58,"espaceDisque":4244,"villeEtude":"BF","temperature":38,"time":1571304142677,"identifiable":false,"plaqueIdentifier":"GAC2703","violationCode":26,"summonsNumber":"1286282342","emplacement":{"latitude":76.78923596550102,"longitude":24.32876080394922}}
{"idDrone":4,"niveauBatterie":28,"droneAltitude":93,"vitesse":78,"espaceDisque":4226,"villeEtude":"VF","temperature":38,"time":1571304142677,"identifiable":false,"plaqueIdentifier":"GCR2838","violationCode":53,"summonsNumber":"1286036800","emplacement":{"latitude":77.26206104624583,"longitude":24.991496505014958}}
{"idDrone":4,"niveauBatterie":26,"droneAltitude":94,"vitesse":37,"espaceDisque":4221,"villeEtude":"NP","temperature":38,"time":1571304142677,"identifiable":true,"plaqueIdentifier":"78755JZ","violationCode":45,"summonsNumber":"1283983825","emplacement":{"latitude":78.16726579188864,"longitude":25.633886586116674}}
{"idDrone":4,"niveauBatterie":20,"droneAltitude":99,"vitesse":22,"espaceDisque":4185,"villeEtude":"LS","temperature":38,"time":1571304142677,"identifiable":false,"plaqueIdentifier":"62416MB","violationCode":24,"summonsNumber":"1286246398","emplacement":{"latitude":79.54639932691745,"longitude":26.603721673264392}}
{"idDrone":4,"niveauBatterie":18,"droneAltitude":102,"vitesse":34,"espaceDisque":4153,"villeEtude":"MA","temperature":38,"time":1571304142677,"identifiable":true,"plaqueIdentifier":"GCR2838","violationCode":23,"summonsNumber":"1286282342","emplacement":{"latitude":80.2299495290763,"longitude":26.724756423419567}}
{"idDrone":4,"niveauBatterie":16,"droneAltitude":104,"vitesse":63,"espaceDisque":4135,"villeEtude":"MA","temperature":38,"time":1571304142677,"identifiable":false,"plaqueIdentifier":"63009MA","violationCode":14,"summonsNumber":"1283294187","emplacement":{"latitude":80.9564400617796,"longitude":27.38574960013169}}
{"idDrone":4,"niveauBatterie":14,"droneAltitude":108,"vitesse":60,"espaceDisque":4124,"villeEtude":"NE","temperature":38,"time":1571304142677,"identifiable":false,"plaqueIdentifier":"62416MB","violationCode":12,"summonsNumber":"1283294138","emplacement":{"latitude":81.77784604767459,"longitude":27.50365417092772}}
{"idDrone":4,"niveauBatterie":12,"droneAltitude":110,"vitesse":71,"espaceDisque":4097,"villeEtude":"BF","temperature":38,"time":1571304142677,"identifiable":true,"plaqueIdentifier":"GAR6813","violationCode":25,"summonsNumber":"1283983620","emplacement":{"latitude":82.51242355227446,"longitude":28.027788223037028}}
{"idDrone":4,"niveauBatterie":10,"droneAltitude":112,"vitesse":67,"espaceDisque":4080,"villeEtude":"CH","temperature":38,"time":1571304142677,"identifiable":false,"plaqueIdentifier":"GBH9379","violationCode":24,"summonsNumber":"1286036800","emplacement":{"latitude":83.45974611883553,"longitude":28.269052354549306}}
{"idDrone":4,"niveauBatterie":8,"droneAltitude":113,"vitesse":23,"espaceDisque":4075,"villeEtude":"HF","temperature":38,"time":1571304142677,"identifiable":true,"plaqueIdentifier":"GAR6813","violationCode":95,"summonsNumber":"1286246416","emplacement":{"latitude":84.22263123932596,"longitude":29.147267581468164}}
{"idDrone":4,"niveauBatterie":6,"droneAltitude":114,"vitesse":27,"espaceDisque":4071,"villeEtude":"LS","temperature":38,"time":1571304142677,"identifiable":true,"plaqueIdentifier":"M367CN","violationCode":66,"summonsNumber":"1283983667","emplacement":{"latitude":85.08778940133675,"longitude":29.75920495749549}}
{"idDrone":4,"niveauBatterie":4,"droneAltitude":115,"vitesse":63,"espaceDisque":4049,"villeEtude":"AS","temperature":38,"time":1571304142677,"identifiable":true,"plaqueIdentifier":"MCL78B","violationCode":66,"summonsNumber":"1286246416","emplacement":{"latitude":85.43189940543813,"longitude":30.030276737911777}}
{"idDrone":4,"niveauBatterie":2,"droneAltitude":118,"vitesse":34,"espaceDisque":4023,"villeEtude":"NJ","temperature":38,"time":1571304142677,"identifiable":true,"plaqueIdentifier":"GAR6813","violationCode":95,"summonsNumber":"1283294163","emplacement":{"latitude":85.90131135913215,"longitude":30.70629779076258}}
{"idDrone":4,"niveauBatterie":0,"droneAltitude":119,"vitesse":54,"espaceDisque":4001,"villeEtude":"AS","temperature":38,"time":1571304142677,"identifiable":true,"plaqueIdentifier":"GFC5338","violationCode":75,"summonsNumber":"1286282342","emplacement":{"latitude":85.9063317421794,"longitude":31.628691660903698}}
{"idDrone":4,"niveauBatterie":-2,"droneAltitude":120,"vitesse":26,"espaceDisque":3965,"villeEtude":"VF","temperature":38,"time":1571304142677,"identifiable":true,"plaqueIdentifier":"WBJ819","violationCode":85,"summonsNumber":"1286036800","emplacement":{"latitude":85.920442029716,"longitude":31.789947221386242}}
{"idDrone":4,"niveauBatterie":-4,"droneAltitude":124,"vitesse":74,"espaceDisque":3939,"villeEtude":"OL","temperature":38,"time":1571304142677,"identifiable":false,"plaqueIdentifier":"GEN8674","violationCode":75,"summonsNumber":"1283294163","emplacement":{"latitude":86.77549877810858,"longitude":32.53418517068795}}
{"idDrone":4,"niveauBatterie":-6,"droneAltitude":128,"vitesse":48,"espaceDisque":3938,"villeEtude":"PA","temperature":38,"time":1571304142677,"identifiable":false,"plaqueIdentifier":"YZY6476","violationCode":45,"summonsNumber":"1283983679","emplacement":{"latitude":86.8798607843089,"longitude":33.463913395666594}}
{"idDrone":4,"niveauBatterie":-8,"droneAltitude":130,"vitesse":79,"espaceDisque":3926,"villeEtude":"RI","temperature":38,"time":1571304142677,"identifiable":true,"plaqueIdentifier":"GCR2838","violationCode":99,"summonsNumber":"1283294138","emplacement":{"latitude":87.0603011743571,"longitude":34.22184667111633}}
{"idDrone":4,"niveauBatterie":-10,"droneAltitude":133,"vitesse":29,"espaceDisque":3895,"villeEtude":"HF","temperature":38,"time":1571304142677,"identifiable":false,"plaqueIdentifier":"GBH9379","violationCode":46,"summonsNumber":"1283294138","emplacement":{"latitude":87.08300753587355,"longitude":34.85718105479665}}
{"idDrone":4,"niveauBatterie":-12,"droneAltitude":137,"vitesse":47,"espaceDisque":3877,"villeEtude":"VP","temperature":38,"time":1571304142677,"identifiable":false,"plaqueIdentifier":"62416MB","violationCode":66,"summonsNumber":"1286282342","emplacement":{"latitude":87.99944774824824,"longitude":35.00280438336866}}
{"idDrone":4,"niveauBatterie":-14,"droneAltitude":141,"vitesse":34,"espaceDisque":3862,"villeEtude":"OL","temperature":38,"time":1571304142677,"identifiable":false,"plaqueIdentifier":"GBH9379","violationCode":84,"summonsNumber":"1283983825","emplacement":{"latitude":88.30570416502322,"longitude":35.66727363828728}}
{"idDrone":4,"niveauBatterie":-16,"droneAltitude":142,"vitesse":30,"espaceDisque":3823,"villeEtude":"HF","temperature":38,"time":1571304142677,"identifiable":true,"plaqueIdentifier":"M367CN","violationCode":25,"summonsNumber":"1283294175","emplacement":{"latitude":88.90486062522324,"longitude":36.1495805204945}}
{"idDrone":4,"niveauBatterie":-18,"droneAltitude":143,"vitesse":29,"espaceDisque":3797,"villeEtude":"NJ","temperature":38,"time":1571304142677,"identifiable":true,"plaqueIdentifier":"WBJ819","violationCode":45,"summonsNumber":"1283294187","emplacement":{"latitude":89.27536393441832,"longitude":36.28670653605854}}
{"idDrone":4,"niveauBatterie":-20,"droneAltitude":147,"vitesse":60,"espaceDisque":3766,"villeEtude":"MA","temperature":38,"time":1571304142677,"identifiable":false,"plaqueIdentifier":"MCL78B","violationCode":66,"summonsNumber":"1286246398","emplacement":{"latitude":89.29320049568513,"longitude":37.14068383089827}}
{"idDrone":4,"niveauBatterie":-22,"droneAltitude":150,"vitesse":66,"espaceDisque":3735,"villeEtude":"PA","temperature":38,"time":1571304142677,"identifiable":true,"plaqueIdentifier":"GBH9379","violationCode":14,"summonsNumber":"1283983734","emplacement":{"latitude":90.09257336732252,"longitude":37.65188863521459}}
{"idDrone":4,"niveauBatterie":-24,"droneAltitude":151,"vitesse":32,"espaceDisque":3725,"villeEtude":"NJ","temperature":38,"time":1571304142677,"identifiable":true,"plaqueIdentifier":"GBB9093","violationCode":66,"summonsNumber":"1286248000","emplacement":{"latitude":90.60667780831635,"longitude":38.03898629191841}}
{"idDrone":4,"niveauBatterie":-26,"droneAltitude":155,"vitesse":43,"espaceDisque":3697,"villeEtude":"BF","temperature":38,"time":1571304142677,"identifiable":false,"plaqueIdentifier":"GFC5338","violationCode":19,"summonsNumber":"1283294138","emplacement":{"latitude":91.56607593144595,"longitude":38.19671804112615}}
{"idDrone":4,"niveauBatterie":-28,"droneAltitude":156,"vitesse":76,"espaceDisque":3686,"villeEtude":"VF","temperature":38,"time":1571304142677,"identifiable":false,"plaqueIdentifier":"WBJ819","violationCode":75,"summonsNumber":"1283294217","emplacement":{"latitude":91.66428353284641,"longitude":38.667706353988684}}
{"idDrone":4,"niveauBatterie":-30,"droneAltitude":159,"vitesse":58,"espaceDisque":3684,"villeEtude":"RI","temperature":38,"time":1571304142677,"identifiable":false,"plaqueIdentifier":"MCL78B","violationCode":43,"summonsNumber":"1283983667","emplacement":{"latitude":92.12239500689266,"longitude":38.99897808038082}}
{"idDrone":4,"niveauBatterie":-32,"droneAltitude":161,"vitesse":33,"espaceDisque":3658,"villeEtude":"NJ","temperature":38,"time":1571304142677,"identifiable":true,"plaqueIdentifier":"GFC5338","violationCode":43,"summonsNumber":"1286123550","emplacement":{"latitude":92.88324717754142,"longitude":39.38441438166144}}
{"idDrone":4,"niveauBatterie":-34,"droneAltitude":162,"vitesse":74,"espaceDisque":3644,"villeEtude":"UK","temperature":38,"time":1571304142677,"identifiable":true,"plaqueIdentifier":"GFC5338","violationCode":25,"summonsNumber":"1286282342","emplacement":{"latitude":93.47691749036846,"longitude":39.845763932685514}}
{"idDrone":4,"niveauBatterie":-36,"droneAltitude":164,"vitesse":41,"espaceDisque":3600,"villeEtude":"VF","temperature":38,"time":1571304142677,"identifiable":true,"plaqueIdentifier":"GBB9093","violationCode":86,"summonsNumber":"1286246398","emplacement":{"latitude":93.85143579691939,"longitude":39.92901085351483}}
{"idDrone":4,"niveauBatterie":-38,"droneAltitude":168,"vitesse":20,"espaceDisque":3560,"villeEtude":"99","temperature":38,"time":1571304142677,"identifiable":true,"plaqueIdentifier":"GBH9379","violationCode":91,"summonsNumber":"1283983631","emplacement":{"latitude":94.60487616412675,"longitude":40.533836436722915}}
{"idDrone":4,"niveauBatterie":-40,"droneAltitude":172,"vitesse":41,"espaceDisque":3549,"villeEtude":"LS","temperature":38,"time":1571304142677,"identifiable":false,"plaqueIdentifier":"GJA3452","violationCode":19,"summonsNumber":"1283983667","emplacement":{"latitude":95.59365320679468,"longitude":40.982187823486036}}
{"idDrone":4,"niveauBatterie":-42,"droneAltitude":176,"vitesse":76,"espaceDisque":3521,"villeEtude":"LS","temperature":38,"time":1571304142677,"identifiable":false,"plaqueIdentifier":"815M342","violationCode":53,"summonsNumber":"1283294217","emplacement":{"latitude":96.02197028230043,"longitude":41.78415667506123}}
{"idDrone":4,"niveauBatterie":-44,"droneAltitude":180,"vitesse":49,"espaceDisque":3509,"villeEtude":"VP","temperature":38,"time":1571304142677,"identifiable":false,"plaqueIdentifier":"GEN8674","violationCode":75,"summonsNumber":"1283294175","emplacement":{"latitude":97.00681591535722,"longitude":42.46739070198743}}
{"idDrone":4,"niveauBatterie":-46,"droneAltitude":182,"vitesse":23,"espaceDisque":3493,"villeEtude":"CT","temperature":38,"time":1571304142677,"identifiable":false,"plaqueIdentifier":"WBJ819","violationCode":86,"summonsNumber":"1283294138","emplacement":{"latitude":97.51655598013217,"longitude":42.95415037565596}}
{"idDrone":4,"niveauBatterie":-48,"droneAltitude":186,"vitesse":62,"espaceDisque":3478,"villeEtude":"MP","temperature":38,"time":1571304142677,"identifiable":true,"plaqueIdentifier":"78755JZ","violationCode":24,"summonsNumber":"1283294175","emplacement":{"latitude":97.99775470192,"longitude":43.32703634548854}}
{"idDrone":4,"niveauBatterie":-50,"droneAltitude":188,"vitesse":64,"espaceDisque":3458,"villeEtude":"MD","temperature":38,"time":1571304142677,"identifiable":false,"plaqueIdentifier":"YZY6476","violationCode":53,"summonsNumber":"1286246416","emplacement":{"latitude":98.70746918007099,"longitude":43.58800950020743}}
{"idDrone":4,"niveauBatterie":-52,"droneAltitude":189,"vitesse":29,"espaceDisque":3447,"villeEtude":"MP","temperature":38,"time":1571304142677,"identifiable":false,"plaqueIdentifier":"GBB9093","violationCode":91,"summonsNumber":"1286246398","emplacement":{"latitude":99.58484743049962,"longitude":43.74918693107793}}
{"idDrone":4,"niveauBatterie":-58,"droneAltitude":198,"vitesse":44,"espaceDisque":3419,"villeEtude":"JK","temperature":38,"time":1571304142677,"identifiable":false,"plaqueIdentifier":"91648MC","violationCode":53,"summonsNumber":"1286246398","emplacement":{"latitude":100.47712955565227,"longitude":44.83648230842839}}
{"idDrone":4,"niveauBatterie":-60,"droneAltitude":199,"vitesse":79,"espaceDisque":3413,"villeEtude":"MD","temperature":38,"time":1571304142677,"identifiable":true,"plaqueIdentifier":"YZY6476","violationCode":43,"summonsNumber":"1283983631","emplacement":{"latitude":101.00746681231877,"longitude":45.66945825774258}}
{"idDrone":4,"niveauBatterie":-62,"droneAltitude":203,"vitesse":47,"espaceDisque":3385,"villeEtude":"CH","temperature":38,"time":1571304142677,"identifiable":true,"plaqueIdentifier":"78755JZ","violationCode":34,"summonsNumber":"1283983679","emplacement":{"latitude":101.90675709379971,"longitude":46.25292044652342}}
{"idDrone":4,"niveauBatterie":90,"droneAltitude":15,"vitesse":42,"espaceDisque":4898,"villeEtude":"MP","temperature":38,"time":1571309223822,"identifiable":true,"plaqueIdentifier":"WBJ819","violationCode":66,"summonsNumber":"1283983631","emplacement":{"latitude":59.21638082643607,"longitude":11.417011507771996}}
{"idDrone":4,"niveauBatterie":88,"droneAltitude":17,"vitesse":49,"espaceDisque":4896,"villeEtude":"OL","temperature":38,"time":1571309223822,"identifiable":true,"plaqueIdentifier":"XZ764G","violationCode":87,"summonsNumber":"1286246416","emplacement":{"latitude":59.31064100107995,"longitude":11.510457332827508}}
{"idDrone":4,"niveauBatterie":86,"droneAltitude":19,"vitesse":42,"espaceDisque":4892,"villeEtude":"NJ","temperature":38,"time":1571309223822,"identifiable":false,"plaqueIdentifier":"815M342","violationCode":34,"summonsNumber":"1286036800","emplacement":{"latitude":59.84980807810046,"longitude":12.090894041642198}}
{"idDrone":4,"niveauBatterie":84,"droneAltitude":22,"vitesse":31,"espaceDisque":4867,"villeEtude":"MA","temperature":38,"time":1571309223822,"identifiable":false,"plaqueIdentifier":"GAC2703","violationCode":66,"summonsNumber":"1286036800","emplacement":{"latitude":59.862873514409515,"longitude":12.203196219465037}}
{"idDrone":4,"niveauBatterie":82,"droneAltitude":26,"vitesse":72,"espaceDisque":4846,"villeEtude":"OL","temperature":38,"time":1571309223822,"identifiable":false,"plaqueIdentifier":"GAR6813","violationCode":19,"summonsNumber":"1283294138","emplacement":{"latitude":60.69404207763138,"longitude":12.702048750035724}}
{"idDrone":4,"niveauBatterie":80,"droneAltitude":28,"vitesse":45,"espaceDisque":4818,"villeEtude":"RI","temperature":38,"time":1571309223822,"identifiable":false,"plaqueIdentifier":"GFC5338","violationCode":78,"summonsNumber":"1283294138","emplacement":{"latitude":61.6148487241987,"longitude":12.849910936739542}}
{"idDrone":4,"niveauBatterie":78,"droneAltitude":32,"vitesse":42,"espaceDisque":4810,"villeEtude":"MP","temperature":38,"time":1571309223822,"identifiable":true,"plaqueIdentifier":"GBH9379","violationCode":53,"summonsNumber":"1283294217","emplacement":{"latitude":61.63933119524726,"longitude":13.53416591047596}}
{"idDrone":4,"niveauBatterie":76,"droneAltitude":35,"vitesse":23,"espaceDisque":4806,"villeEtude":"JK","temperature":38,"time":1571309223822,"identifiable":true,"plaqueIdentifier":"YZY6476","violationCode":87,"summonsNumber":"1283294229","emplacement":{"latitude":62.160063686800235,"longitude":13.900754600126621}}
{"idDrone":4,"niveauBatterie":74,"droneAltitude":36,"vitesse":42,"espaceDisque":4802,"villeEtude":"MP","temperature":38,"time":1571309223822,"identifiable":true,"plaqueIdentifier":"GAR6813","violationCode":45,"summonsNumber":"1283294217","emplacement":{"latitude":62.78945183674835,"longitude":13.948433101716047}}
{"idDrone":4,"niveauBatterie":72,"droneAltitude":37,"vitesse":43,"espaceDisque":4784,"villeEtude":"LS","temperature":38,"time":1571309223822,"identifiable":false,"plaqueIdentifier":"GAD1485","violationCode":23,"summonsNumber":"1283983631","emplacement":{"latitude":63.04184570230746,"longitude":14.35910512771739}}
{"idDrone":4,"niveauBatterie":70,"droneAltitude":41,"vitesse":27,"espaceDisque":4761,"villeEtude":"AS","temperature":38,"time":1571309223822,"identifiable":true,"plaqueIdentifier":"GFC5338","violationCode":12,"summonsNumber":"1286282330","emplacement":{"latitude":63.711068686583616,"longitude":14.964506816418028}}
{"idDrone":4,"niveauBatterie":68,"droneAltitude":43,"vitesse":48,"espaceDisque":4737,"villeEtude":"OL","temperature":38,"time":1571309223822,"identifiable":false,"plaqueIdentifier":"T60DAR","violationCode":66,"summonsNumber":"1286248000","emplacement":{"latitude":64.1193744208282,"longitude":15.029804564462427}}
{"idDrone":4,"niveauBatterie":66,"droneAltitude":45,"vitesse":25,"espaceDisque":4692,"villeEtude":"UK","temperature":38,"time":1571309223822,"identifiable":false,"plaqueIdentifier":"62416MB","violationCode":12,"summonsNumber":"1283983620","emplacement":{"latitude":64.56224272882113,"longitude":15.940813843314256}}
{"idDrone":4,"niveauBatterie":64,"droneAltitude":47,"vitesse":24,"espaceDisque":4682,"villeEtude":"HF","temperature":38,"time":1571309223822,"identifiable":true,"plaqueIdentifier":"T60DAR","violationCode":25,"summonsNumber":"1283294217","emplacement":{"latitude":65.06757125344136,"longitude":16.387165546017748}}
{"idDrone":4,"niveauBatterie":62,"droneAltitude":48,"vitesse":69,"espaceDisque":4652,"villeEtude":"NE","temperature":38,"time":1571309223822,"identifiable":true,"plaqueIdentifier":"40793JY","violationCode":43,"summonsNumber":"1283983679","emplacement":{"latitude":65.98297551107203,"longitude":17.24883400869727}}
{"idDrone":4,"niveauBatterie":60,"droneAltitude":49,"vitesse":44,"espaceDisque":4648,"villeEtude":"NE","temperature":38,"time":1571309223822,"identifiable":false,"plaqueIdentifier":"T60DAR","violationCode":99,"summonsNumber":"1286246416","emplacement":{"latitude":66.25760453173469,"longitude":17.757081000868737}}
{"idDrone":4,"niveauBatterie":58,"droneAltitude":50,"vitesse":63,"espaceDisque":4642,"villeEtude":"HF","temperature":38,"time":1571309223822,"identifiable":false,"plaqueIdentifier":"T60DAR","violationCode":34,"summonsNumber":"1283294229","emplacement":{"latitude":66.44136711052805,"longitude":17.851530294901146}}
{"idDrone":4,"niveauBatterie":56,"droneAltitude":54,"vitesse":38,"espaceDisque":4615,"villeEtude":"MA","temperature":38,"time":1571309223822,"identifiable":false,"plaqueIdentifier":"WBJ819","violationCode":87,"summonsNumber":"1283983620","emplacement":{"latitude":66.97045674713809,"longitude":18.652191021825743}}
{"idDrone":4,"niveauBatterie":54,"droneAltitude":57,"vitesse":59,"espaceDisque":4598,"villeEtude":"LS","temperature":38,"time":1571309223822,"identifiable":true,"plaqueIdentifier":"GJA3452","violationCode":55,"summonsNumber":"1283294175","emplacement":{"latitude":67.50993057285106,"longitude":19.554308375244}}
{"idDrone":4,"niveauBatterie":52,"droneAltitude":59,"vitesse":26,"espaceDisque":4575,"villeEtude":"MP","temperature":38,"time":1571309223822,"identifiable":false,"plaqueIdentifier":"GBH9379","violationCode":19,"summonsNumber":"1283983771","emplacement":{"latitude":68.36087828980186,"longitude":20.07153885667442}}
{"idDrone":4,"niveauBatterie":50,"droneAltitude":61,"vitesse":74,"espaceDisque":4543,"villeEtude":"NJ","temperature":38,"time":1571309223822,"identifiable":false,"plaqueIdentifier":"WBJ819","violationCode":26,"summonsNumber":"1283983631","emplacement":{"latitude":68.62831998719584,"longitude":20.249680688108967}}
{"idDrone":4,"niveauBatterie":48,"droneAltitude":62,"vitesse":39,"espaceDisque":4539,"villeEtude":"CT","temperature":38,"time":1571309223822,"identifiable":true,"plaqueIdentifier":"78755JZ","violationCode":75,"summonsNumber":"1283294229","emplacement":{"latitude":69.31902727297827,"longitude":21.125589262351475}}
{"idDrone":4,"niveauBatterie":46,"droneAltitude":64,"vitesse":30,"espaceDisque":4508,"villeEtude":"NJ","temperature":38,"time":1571309223822,"identifiable":false,"plaqueIdentifier":"T60DAR","violationCode":53,"summonsNumber":"1283294187","emplacement":{"latitude":69.53970820034684,"longitude":21.836069474259986}}
{"idDrone":4,"niveauBatterie":44,"droneAltitude":65,"vitesse":22,"espaceDisque":4495,"villeEtude":"RI","temperature":38,"time":1571309223822,"identifiable":false,"plaqueIdentifier":"GBB9093","violationCode":12,"summonsNumber":"1286282342","emplacement":{"latitude":70.52022193083926,"longitude":22.330193882612278}}
{"idDrone":4,"niveauBatterie":42,"droneAltitude":68,"vitesse":71,"espaceDisque":4486,"villeEtude":"NJ","temperature":38,"time":1571309223822,"identifiable":true,"plaqueIdentifier":"MCL78B","violationCode":46,"summonsNumber":"1283294138","emplacement":{"latitude":70.77664558406016,"longitude":22.644197897674395}}
{"idDrone":4,"niveauBatterie":40,"droneAltitude":69,"vitesse":60,"espaceDisque":4460,"villeEtude":"NJ","temperature":38,"time":1571309223822,"identifiable":false,"plaqueIdentifier":"MCL78B","violationCode":53,"summonsNumber":"1283983679","emplacement":{"latitude":71.7156159776386,"longitude":23.21831386605191}}
{"idDrone":4,"niveauBatterie":38,"droneAltitude":72,"vitesse":30,"espaceDisque":4452,"villeEtude":"BF","temperature":38,"time":1571309223822,"identifiable":true,"plaqueIdentifier":"GFC5338","violationCode":87,"summonsNumber":"1283983667","emplacement":{"latitude":72.2430805443531,"longitude":23.909288731399396}}
{"idDrone":4,"niveauBatterie":36,"droneAltitude":76,"vitesse":40,"espaceDisque":4422,"villeEtude":"MA","temperature":38,"time":1571309223822,"identifiable":true,"plaqueIdentifier":"MCL78B","violationCode":91,"summonsNumber":"1283294163","emplacement":{"latitude":72.6833600505986,"longitude":24.884237742966707}}
{"idDrone":4,"niveauBatterie":34,"droneAltitude":80,"vitesse":43,"espaceDisque":4410,"villeEtude":"MD","temperature":38,"time":1571309223822,"identifiable":true,"plaqueIdentifier":"MCL78B","violationCode":12,"summonsNumber":"1283983825","emplacement":{"latitude":72.81707632904073,"longitude":25.060029040024457}}
{"idDrone":4,"niveauBatterie":32,"droneAltitude":84,"vitesse":27,"espaceDisque":4400,"villeEtude":"UK","temperature":38,"time":1571309223822,"identifiable":false,"plaqueIdentifier":"GBH9379","violationCode":55,"summonsNumber":"1286246416","emplacement":{"latitude":73.05630588492677,"longitude":25.251442935764754}}
{"idDrone":4,"niveauBatterie":30,"droneAltitude":85,"vitesse":29,"espaceDisque":4383,"villeEtude":"NE","temperature":38,"time":1571309223822,"identifiable":true,"plaqueIdentifier":"GBB9093","violationCode":55,"summonsNumber":"1286248000","emplacement":{"latitude":73.16371590412278,"longitude":26.042656429709147}}
{"idDrone":4,"niveauBatterie":28,"droneAltitude":86,"vitesse":73,"espaceDisque":4368,"villeEtude":"NP","temperature":38,"time":1571309223822,"identifiable":true,"plaqueIdentifier":"GCR2838","violationCode":45,"summonsNumber":"1286248000","emplacement":{"latitude":73.5750870882006,"longitude":26.102797718699417}}
{"idDrone":4,"niveauBatterie":26,"droneAltitude":89,"vitesse":75,"espaceDisque":4347,"villeEtude":"99","temperature":38,"time":1571309223822,"identifiable":true,"plaqueIdentifier":"GEN8674","violationCode":95,"summonsNumber":"1286246416","emplacement":{"latitude":74.07376685597636,"longitude":26.580852765613113}}
{"idDrone":4,"niveauBatterie":24,"droneAltitude":91,"vitesse":72,"espaceDisque":4310,"villeEtude":"NY","temperature":38,"time":1571309223822,"identifiable":true,"plaqueIdentifier":"63009MA","violationCode":53,"summonsNumber":"1286282342","emplacement":{"latitude":74.8465061657986,"longitude":26.795472255520583}}
{"idDrone":4,"niveauBatterie":22,"droneAltitude":95,"vitesse":59,"espaceDisque":4294,"villeEtude":"HF","temperature":38,"time":1571309223822,"identifiable":false,"plaqueIdentifier":"40793JY","violationCode":78,"summonsNumber":"1286248000","emplacement":{"latitude":74.9849647929177,"longitude":27.766771574591154}}
{"idDrone":4,"niveauBatterie":20,"droneAltitude":99,"vitesse":79,"espaceDisque":4293,"villeEtude":"MD","temperature":38,"time":1571309223822,"identifiable":true,"plaqueIdentifier":"GEN8674","violationCode":78,"summonsNumber":"1283294229","emplacement":{"latitude":75.72221526001718,"longitude":28.554553611267885}}
{"idDrone":4,"niveauBatterie":18,"droneAltitude":100,"vitesse":29,"espaceDisque":4265,"villeEtude":"MD","temperature":38,"time":1571309223822,"identifiable":false,"plaqueIdentifier":"91648MC","violationCode":14,"summonsNumber":"1283983734","emplacement":{"latitude":76.56511086297321,"longitude":29.10436374003122}}
{"idDrone":4,"niveauBatterie":16,"droneAltitude":102,"vitesse":41,"espaceDisque":4247,"villeEtude":"JK","temperature":38,"time":1571309223822,"identifiable":false,"plaqueIdentifier":"GCR2838","violationCode":46,"summonsNumber":"1283983771","emplacement":{"latitude":77.43434117514327,"longitude":29.477192071751347}}
{"idDrone":4,"niveauBatterie":14,"droneAltitude":105,"vitesse":74,"espaceDisque":4221,"villeEtude":"CH","temperature":38,"time":1571309223822,"identifiable":true,"plaqueIdentifier":"GAD1485","violationCode":75,"summonsNumber":"1283294229","emplacement":{"latitude":77.9985237600171,"longitude":29.49967320086848}}
{"idDrone":4,"niveauBatterie":12,"droneAltitude":109,"vitesse":68,"espaceDisque":4196,"villeEtude":"HF","temperature":38,"time":1571309223822,"identifiable":true,"plaqueIdentifier":"M367CN","violationCode":53,"summonsNumber":"1283294175","emplacement":{"latitude":78.47654780809977,"longitude":29.52658497859254}}
{"idDrone":4,"niveauBatterie":10,"droneAltitude":110,"vitesse":35,"espaceDisque":4157,"villeEtude":"CH","temperature":38,"time":1571309223822,"identifiable":true,"plaqueIdentifier":"GFC5338","violationCode":86,"summonsNumber":"1286246416","emplacement":{"latitude":79.35199371980734,"longitude":30.140259260469904}}
{"idDrone":4,"niveauBatterie":8,"droneAltitude":113,"vitesse":20,"espaceDisque":4138,"villeEtude":"JK","temperature":38,"time":1571309223822,"identifiable":false,"plaqueIdentifier":"GAD1485","violationCode":95,"summonsNumber":"1286246416","emplacement":{"latitude":79.36343469514298,"longitude":30.58692106708881}}
{"idDrone":4,"niveauBatterie":6,"droneAltitude":117,"vitesse":25,"espaceDisque":4127,"villeEtude":"UK","temperature":38,"time":1571309223822,"identifiable":true,"plaqueIdentifier":"GAD1485","violationCode":34,"summonsNumber":"1283983734","emplacement":{"latitude":80.00983595193222,"longitude":31.285202790408494}}
{"idDrone":4,"niveauBatterie":4,"droneAltitude":120,"vitesse":31,"espaceDisque":4111,"villeEtude":"JK","temperature":38,"time":1571309223822,"identifiable":false,"plaqueIdentifier":"GAR6813","violationCode":66,"summonsNumber":"1283983771","emplacement":{"latitude":80.93593158635048,"longitude":31.348058824870332}}
{"idDrone":4,"niveauBatterie":2,"droneAltitude":121,"vitesse":52,"espaceDisque":4091,"villeEtude":"VP","temperature":38,"time":1571309223822,"identifiable":false,"plaqueIdentifier":"T60DAR","violationCode":25,"summonsNumber":"1283294187","emplacement":{"latitude":81.03183392803905,"longitude":32.19343135330976}}
{"idDrone":4,"niveauBatterie":0,"droneAltitude":125,"vitesse":52,"espaceDisque":4070,"villeEtude":"OL","temperature":38,"time":1571309223822,"identifiable":true,"plaqueIdentifier":"GAD1485","violationCode":19,"summonsNumber":"1283983771","emplacement":{"latitude":81.45173882187407,"longitude":32.79406900303264}}
{"idDrone":4,"niveauBatterie":-2,"droneAltitude":126,"vitesse":30,"espaceDisque":4032,"villeEtude":"OL","temperature":38,"time":1571309223822,"identifiable":true,"plaqueIdentifier":"GAR6813","violationCode":25,"summonsNumber":"1286123550","emplacement":{"latitude":82.24157202823145,"longitude":33.33469346941476}}
{"idDrone":4,"niveauBatterie":-4,"droneAltitude":130,"vitesse":67,"espaceDisque":4030,"villeEtude":"NY","temperature":38,"time":1571309223822,"identifiable":true,"plaqueIdentifier":"T60DAR","violationCode":91,"summonsNumber":"1283983825","emplacement":{"latitude":82.46122782209797,"longitude":34.14481559140968}}
{"idDrone":4,"niveauBatterie":-6,"droneAltitude":133,"vitesse":55,"espaceDisque":4028,"villeEtude":"LS","temperature":38,"time":1571309223822,"identifiable":true,"plaqueIdentifier":"YZY6476","violationCode":12,"summonsNumber":"1283983771","emplacement":{"latitude":82.74179619291944,"longitude":35.016342485332146}}
{"idDrone":4,"niveauBatterie":-8,"droneAltitude":136,"vitesse":44,"espaceDisque":4012,"villeEtude":"OL","temperature":38,"time":1571309223822,"identifiable":false,"plaqueIdentifier":"GJA3452","violationCode":24,"summonsNumber":"1286246416","emplacement":{"latitude":82.93215522999517,"longitude":35.914351957528005}}
{"idDrone":4,"niveauBatterie":-10,"droneAltitude":137,"vitesse":42,"espaceDisque":4012,"villeEtude":"UK","temperature":38,"time":1571309223822,"identifiable":true,"plaqueIdentifier":"GEN8674","violationCode":24,"summonsNumber":"1283294229","emplacement":{"latitude":83.30093457513638,"longitude":36.32537223091848}}
{"idDrone":4,"niveauBatterie":-12,"droneAltitude":139,"vitesse":61,"espaceDisque":4011,"villeEtude":"NP","temperature":38,"time":1571309223822,"identifiable":true,"plaqueIdentifier":"MCL78B","violationCode":55,"summonsNumber":"1283294175","emplacement":{"latitude":84.19377982176218,"longitude":36.60670809806977}}
{"idDrone":4,"niveauBatterie":-14,"droneAltitude":141,"vitesse":58,"espaceDisque":3992,"villeEtude":"RI","temperature":38,"time":1571309223822,"identifiable":true,"plaqueIdentifier":"63009MA","violationCode":75,"summonsNumber":"1283983825","emplacement":{"latitude":84.80742607649002,"longitude":36.77250471424714}}
{"idDrone":4,"niveauBatterie":-16,"droneAltitude":142,"vitesse":32,"espaceDisque":3965,"villeEtude":"OL","temperature":38,"time":1571309223822,"identifiable":false,"plaqueIdentifier":"GFC5338","violationCode":55,"summonsNumber":"1283983631","emplacement":{"latitude":85.3125715315313,"longitude":37.05687454847812}}
{"idDrone":4,"niveauBatterie":-18,"droneAltitude":143,"vitesse":39,"espaceDisque":3961,"villeEtude":"NP","temperature":38,"time":1571309223822,"identifiable":true,"plaqueIdentifier":"YZY6476","violationCode":75,"summonsNumber":"1283294138","emplacement":{"latitude":85.97176045958595,"longitude":37.61907128424452}}
{"idDrone":4,"niveauBatterie":-20,"droneAltitude":147,"vitesse":49,"espaceDisque":3959,"villeEtude":"OL","temperature":38,"time":1571309223822,"identifiable":true,"plaqueIdentifier":"63009MA","violationCode":99,"summonsNumber":"1283983667","emplacement":{"latitude":86.20394128695051,"longitude":37.99025835838569}}
{"idDrone":4,"niveauBatterie":-22,"droneAltitude":149,"vitesse":41,"espaceDisque":3935,"villeEtude":"BF","temperature":38,"time":1571309223822,"identifiable":true,"plaqueIdentifier":"815M342","violationCode":23,"summonsNumber":"1283983734","emplacement":{"latitude":86.80308082533212,"longitude":38.96780377487866}}
{"idDrone":4,"niveauBatterie":-24,"droneAltitude":151,"vitesse":24,"espaceDisque":3924,"villeEtude":"VF","temperature":38,"time":1571309223822,"identifiable":true,"plaqueIdentifier":"62416MB","violationCode":91,"summonsNumber":"1286036800","emplacement":{"latitude":87.66247258674841,"longitude":39.243791444207055}}
{"idDrone":4,"niveauBatterie":-26,"droneAltitude":154,"vitesse":79,"espaceDisque":3892,"villeEtude":"OL","temperature":38,"time":1571309223822,"identifiable":false,"plaqueIdentifier":"GAD1485","violationCode":66,"summonsNumber":"1286246398","emplacement":{"latitude":88.4558622065181,"longitude":39.78051050899605}}
{"idDrone":4,"niveauBatterie":-28,"droneAltitude":156,"vitesse":68,"espaceDisque":3869,"villeEtude":"AS","temperature":38,"time":1571309223822,"identifiable":false,"plaqueIdentifier":"GCR2838","violationCode":53,"summonsNumber":"1283983825","emplacement":{"latitude":88.97872552682338,"longitude":40.20812905795464}}
{"idDrone":4,"niveauBatterie":-30,"droneAltitude":159,"vitesse":24,"espaceDisque":3848,"villeEtude":"BF","temperature":38,"time":1571309223822,"identifiable":false,"plaqueIdentifier":"GAR6813","violationCode":86,"summonsNumber":"1283983771","emplacement":{"latitude":89.01979887336792,"longitude":40.952344256423345}}
{"idDrone":4,"niveauBatterie":-32,"droneAltitude":163,"vitesse":67,"espaceDisque":3807,"villeEtude":"NE","temperature":38,"time":1571309223822,"identifiable":true,"plaqueIdentifier":"78755JZ","violationCode":95,"summonsNumber":"1283294138","emplacement":{"latitude":89.620401961943,"longitude":41.19021166164114}}
{"idDrone":4,"niveauBatterie":-34,"droneAltitude":165,"vitesse":72,"espaceDisque":3794,"villeEtude":"MD","temperature":38,"time":1571309223822,"identifiable":false,"plaqueIdentifier":"91648MC","violationCode":53,"summonsNumber":"1283983679","emplacement":{"latitude":90.2997782800588,"longitude":41.58484986415261}}
{"idDrone":4,"niveauBatterie":-36,"droneAltitude":166,"vitesse":30,"espaceDisque":3769,"villeEtude":"HF","temperature":38,"time":1571309223822,"identifiable":false,"plaqueIdentifier":"40793JY","violationCode":43,"summonsNumber":"1283294175","emplacement":{"latitude":90.74452476446898,"longitude":41.7081682058074}}
{"idDrone":4,"niveauBatterie":-38,"droneAltitude":168,"vitesse":24,"espaceDisque":3725,"villeEtude":"CT","temperature":38,"time":1571309223822,"identifiable":false,"plaqueIdentifier":"63009MA","violationCode":99,"summonsNumber":"1286248000","emplacement":{"latitude":91.51965207532952,"longitude":42.32829705078431}}
{"idDrone":4,"niveauBatterie":-40,"droneAltitude":170,"vitesse":64,"espaceDisque":3707,"villeEtude":"CH","temperature":38,"time":1571309223822,"identifiable":true,"plaqueIdentifier":"XZ764G","violationCode":19,"summonsNumber":"1283294217","emplacement":{"latitude":91.64285477067683,"longitude":42.55747024414255}}
{"idDrone":4,"niveauBatterie":-42,"droneAltitude":174,"vitesse":63,"espaceDisque":3666,"villeEtude":"HF","temperature":38,"time":1571309223822,"identifiable":true,"plaqueIdentifier":"T60DAR","violationCode":46,"summonsNumber":"1283983631","emplacement":{"latitude":92.43940550282335,"longitude":42.908686696202224}}
{"idDrone":4,"niveauBatterie":-44,"droneAltitude":178,"vitesse":78,"espaceDisque":3647,"villeEtude":"MP","temperature":38,"time":1571309223822,"identifiable":false,"plaqueIdentifier":"YZY6476","violationCode":26,"summonsNumber":"1283294229","emplacement":{"latitude":93.30357950267317,"longitude":43.15066236765867}}
{"idDrone":4,"niveauBatterie":-46,"droneAltitude":179,"vitesse":50,"espaceDisque":3633,"villeEtude":"99","temperature":38,"time":1571309223822,"identifiable":false,"plaqueIdentifier":"GBH9379","violationCode":23,"summonsNumber":"1283983679","emplacement":{"latitude":93.7881987215417,"longitude":44.12430833203251}}
{"idDrone":4,"niveauBatterie":-48,"droneAltitude":183,"vitesse":56,"espaceDisque":3612,"villeEtude":"HF","temperature":38,"time":1571309223822,"identifiable":true,"plaqueIdentifier":"MCL78B","violationCode":24,"summonsNumber":"1283983771","emplacement":{"latitude":94.560020121205,"longitude":44.152149583913264}}
{"idDrone":4,"niveauBatterie":-50,"droneAltitude":185,"vitesse":65,"espaceDisque":3569,"villeEtude":"NP","temperature":38,"time":1571309223822,"identifiable":true,"plaqueIdentifier":"YZY6476","violationCode":99,"summonsNumber":"1286282330","emplacement":{"latitude":95.08811672346893,"longitude":44.55865558173034}}
{"idDrone":4,"niveauBatterie":-52,"droneAltitude":187,"vitesse":25,"espaceDisque":3532,"villeEtude":"NY","temperature":38,"time":1571309223822,"identifiable":true,"plaqueIdentifier":"62416MB","violationCode":46,"summonsNumber":"1283983631","emplacement":{"latitude":95.15634729585703,"longitude":44.82807356895687}}
{"idDrone":4,"niveauBatterie":-54,"droneAltitude":188,"vitesse":43,"espaceDisque":3518,"villeEtude":"HF","temperature":38,"time":1571309223822,"identifiable":false,"plaqueIdentifier":"MCL78B","violationCode":55,"summonsNumber":"1283294229","emplacement":{"latitude":95.7406696954775,"longitude":44.99867640951093}}
{"idDrone":4,"niveauBatterie":-56,"droneAltitude":190,"vitesse":45,"espaceDisque":3488,"villeEtude":"RI","temperature":38,"time":1571309223822,"identifiable":false,"plaqueIdentifier":"GBH9379","violationCode":23,"summonsNumber":"1283294217","emplacement":{"latitude":96.57945526962483,"longitude":45.009104197440536}}
{"idDrone":4,"niveauBatterie":-58,"droneAltitude":192,"vitesse":45,"espaceDisque":3464,"villeEtude":"RI","temperature":38,"time":1571309223822,"identifiable":false,"plaqueIdentifier":"62416MB","violationCode":43,"summonsNumber":"1283294175","emplacement":{"latitude":97.27988199082243,"longitude":45.30310760134733}}
{"idDrone":4,"niveauBatterie":-60,"droneAltitude":195,"vitesse":77,"espaceDisque":3427,"villeEtude":"AS","temperature":38,"time":1571309223822,"identifiable":false,"plaqueIdentifier":"MCL78B","violationCode":91,"summonsNumber":"1283294163","emplacement":{"latitude":97.3984073566699,"longitude":45.95897004419544}}
{"idDrone":4,"niveauBatterie":-62,"droneAltitude":198,"vitesse":43,"espaceDisque":3385,"villeEtude":"OL","temperature":38,"time":1571309223822,"identifiable":false,"plaqueIdentifier":"GFC5338","violationCode":53,"summonsNumber":"1283294217","emplacement":{"latitude":97.49713314043818,"longitude":46.761238991605246}}
{"idDrone":4,"niveauBatterie":-64,"droneAltitude":199,"vitesse":30,"espaceDisque":3364,"villeEtude":"CT","temperature":38,"time":1571309223822,"identifiable":false,"plaqueIdentifier":"YZY6476","violationCode":43,"summonsNumber":"1283983667","emplacement":{"latitude":97.55088649168792,"longitude":46.958170783146215}}
{"idDrone":4,"niveauBatterie":-66,"droneAltitude":200,"vitesse":30,"espaceDisque":3357,"villeEtude":"UK","temperature":38,"time":1571309223822,"identifiable":true,"plaqueIdentifier":"GCR2838","violationCode":75,"summonsNumber":"1283983771","emplacement":{"latitude":97.97518986701247,"longitude":47.32443523071268}}
{"idDrone":4,"niveauBatterie":-68,"droneAltitude":204,"vitesse":69,"espaceDisque":3336,"villeEtude":"AS","temperature":38,"time":1571309223822,"identifiable":false,"plaqueIdentifier":"YZY6476","violationCode":14,"summonsNumber":"1283983825","emplacement":{"latitude":98.95947600694639,"longitude":47.59227928359617}}
{"idDrone":4,"niveauBatterie":-70,"droneAltitude":207,"vitesse":75,"espaceDisque":3295,"villeEtude":"VF","temperature":38,"time":1571309223822,"identifiable":false,"plaqueIdentifier":"63009MA","violationCode":26,"summonsNumber":"1283983734","emplacement":{"latitude":99.18816992340612,"longitude":48.17427795895472}}
{"idDrone":4,"niveauBatterie":-72,"droneAltitude":210,"vitesse":61,"espaceDisque":3290,"villeEtude":"RI","temperature":38,"time":1571309223822,"identifiable":true,"plaqueIdentifier":"GAR6813","violationCode":24,"summonsNumber":"1283294138","emplacement":{"latitude":99.50732034351341,"longitude":48.7299671627087}}
{"idDrone":4,"niveauBatterie":-74,"droneAltitude":211,"vitesse":21,"espaceDisque":3288,"villeEtude":"CT","temperature":38,"time":1571309223822,"identifiable":true,"plaqueIdentifier":"WBJ819","violationCode":23,"summonsNumber":"1283983734","emplacement":{"latitude":100.09338793237316,"longitude":48.89751412445441}}
{"idDrone":4,"niveauBatterie":-76,"droneAltitude":215,"vitesse":51,"espaceDisque":3276,"villeEtude":"NY","temperature":38,"time":1571309223822,"identifiable":true,"plaqueIdentifier":"62416MB","violationCode":82,"summonsNumber":"1283294163","emplacement":{"latitude":100.9122301175583,"longitude":49.71578443139559}}
{"idDrone":4,"niveauBatterie":-78,"droneAltitude":216,"vitesse":51,"espaceDisque":3276,"villeEtude":"99","temperature":38,"time":1571309223822,"identifiable":false,"plaqueIdentifier":"T60DAR","violationCode":75,"summonsNumber":"1283294138","emplacement":{"latitude":101.821150793332,"longitude":50.24170107113385}}
{"idDrone":4,"niveauBatterie":-80,"droneAltitude":219,"vitesse":37,"espaceDisque":3255,"villeEtude":"99","temperature":38,"time":1571309223822,"identifiable":false,"plaqueIdentifier":"40793JY","violationCode":66,"summonsNumber":"1283983620","emplacement":{"latitude":102.75803779517389,"longitude":50.425875052949564}}
{"idDrone":4,"niveauBatterie":-82,"droneAltitude":222,"vitesse":24,"espaceDisque":3239,"villeEtude":"OL","temperature":38,"time":1571309223822,"identifiable":true,"plaqueIdentifier":"815M342","violationCode":23,"summonsNumber":"1283294138","emplacement":{"latitude":102.97514374714977,"longitude":51.37704526642437}}
{"idDrone":4,"niveauBatterie":-84,"droneAltitude":224,"vitesse":69,"espaceDisque":3216,"villeEtude":"MD","temperature":38,"time":1571309223822,"identifiable":false,"plaqueIdentifier":"GAC2703","violationCode":86,"summonsNumber":"1286036800","emplacement":{"latitude":103.96294348042849,"longitude":52.12373243853043}}
{"idDrone":1,"niveauBatterie":90,"droneAltitude":10,"vitesse":53,"espaceDisque":4883,"villeEtude":"NE","temperature":38,"time":1571310727236,"identifiable":false,"plaqueIdentifier":"MCL78B","violationCode":66,"summonsNumber":"1283294138","emplacement":{"latitude":60.365927774780495,"longitude":10.273928343690065}}
{"idDrone":4,"niveauBatterie":90,"droneAltitude":14,"vitesse":75,"espaceDisque":4870,"villeEtude":"VF","temperature":38,"time":1571310917570,"identifiable":false,"plaqueIdentifier":"GAR6813","violationCode":84,"summonsNumber":"1283294138","emplacement":{"latitude":59.30301373434349,"longitude":11.365571062643156}}
{"idDrone":4,"niveauBatterie":88,"droneAltitude":17,"vitesse":21,"espaceDisque":4870,"villeEtude":"UK","temperature":38,"time":1571310917570,"identifiable":true,"plaqueIdentifier":"MCL78B","violationCode":75,"summonsNumber":"1283294187","emplacement":{"latitude":59.338222627979725,"longitude":11.585584057684315}}
{"idDrone":4,"niveauBatterie":86,"droneAltitude":19,"vitesse":20,"espaceDisque":4837,"villeEtude":"NJ","temperature":38,"time":1571310917570,"identifiable":false,"plaqueIdentifier":"62416MB","violationCode":14,"summonsNumber":"1283294229","emplacement":{"latitude":60.22021960251843,"longitude":12.374467383634995}}
{"idDrone":4,"niveauBatterie":84,"droneAltitude":21,"vitesse":75,"espaceDisque":4827,"villeEtude":"MD","temperature":38,"time":1571310917570,"identifiable":false,"plaqueIdentifier":"XZ764G","violationCode":14,"summonsNumber":"1283294217","emplacement":{"latitude":61.09716531607244,"longitude":12.894895631189272}}
{"idDrone":4,"niveauBatterie":82,"droneAltitude":25,"vitesse":53,"espaceDisque":4796,"villeEtude":"99","temperature":38,"time":1571310917570,"identifiable":false,"plaqueIdentifier":"GBB9093","violationCode":43,"summonsNumber":"1283294217","emplacement":{"latitude":61.12269356280179,"longitude":13.027511044437542}}
{"idDrone":4,"niveauBatterie":80,"droneAltitude":27,"vitesse":74,"espaceDisque":4766,"villeEtude":"NP","temperature":38,"time":1571310917570,"identifiable":true,"plaqueIdentifier":"MCL78B","violationCode":86,"summonsNumber":"1283983631","emplacement":{"latitude":61.16526043702188,"longitude":13.513759093274999}}
{"idDrone":4,"niveauBatterie":78,"droneAltitude":28,"vitesse":71,"espaceDisque":4752,"villeEtude":"HF","temperature":38,"time":1571310917570,"identifiable":false,"plaqueIdentifier":"M367CN","violationCode":87,"summonsNumber":"1283983825","emplacement":{"latitude":61.20029361618745,"longitude":14.18578923945266}}
{"idDrone":4,"niveauBatterie":76,"droneAltitude":32,"vitesse":40,"espaceDisque":4752,"villeEtude":"UK","temperature":38,"time":1571310917570,"identifiable":false,"plaqueIdentifier":"91648MC","violationCode":55,"summonsNumber":"1283294138","emplacement":{"latitude":62.08859630726705,"longitude":14.188456622456602}}
{"idDrone":4,"niveauBatterie":74,"droneAltitude":33,"vitesse":27,"espaceDisque":4733,"villeEtude":"99","temperature":38,"time":1571310917570,"identifiable":true,"plaqueIdentifier":"GCR2838","violationCode":95,"summonsNumber":"1283294163","emplacement":{"latitude":62.56097514187398,"longitude":14.95873964729707}}
{"idDrone":4,"niveauBatterie":72,"droneAltitude":34,"vitesse":47,"espaceDisque":4722,"villeEtude":"VF","temperature":38,"time":1571310917570,"identifiable":false,"plaqueIdentifier":"XZ764G","violationCode":25,"summonsNumber":"1283983620","emplacement":{"latitude":63.01308141764494,"longitude":15.481670480199446}}
{"idDrone":4,"niveauBatterie":70,"droneAltitude":38,"vitesse":58,"espaceDisque":4717,"villeEtude":"MA","temperature":38,"time":1571310917570,"identifiable":false,"plaqueIdentifier":"40793JY","violationCode":25,"summonsNumber":"1283983679","emplacement":{"latitude":63.36432497701012,"longitude":15.517551825272259}}
{"idDrone":4,"niveauBatterie":68,"droneAltitude":41,"vitesse":51,"espaceDisque":4694,"villeEtude":"UK","temperature":38,"time":1571310917570,"identifiable":false,"plaqueIdentifier":"62416MB","violationCode":86,"summonsNumber":"1286246398","emplacement":{"latitude":63.95922299244988,"longitude":15.983192971787439}}
{"idDrone":4,"niveauBatterie":66,"droneAltitude":43,"vitesse":44,"espaceDisque":4689,"villeEtude":"VF","temperature":38,"time":1571310917570,"identifiable":false,"plaqueIdentifier":"GAD1485","violationCode":86,"summonsNumber":"1283983667","emplacement":{"latitude":64.52522991127661,"longitude":16.208843965108915}}
{"idDrone":4,"niveauBatterie":64,"droneAltitude":47,"vitesse":32,"espaceDisque":4657,"villeEtude":"HF","temperature":38,"time":1571310917570,"identifiable":true,"plaqueIdentifier":"62416MB","violationCode":55,"summonsNumber":"1286246398","emplacement":{"latitude":64.82557328700861,"longitude":16.29002490929019}}
{"idDrone":4,"niveauBatterie":62,"droneAltitude":51,"vitesse":74,"espaceDisque":4628,"villeEtude":"AS","temperature":38,"time":1571310917570,"identifiable":true,"plaqueIdentifier":"GCR2838","violationCode":19,"summonsNumber":"1286246416","emplacement":{"latitude":65.07340312673176,"longitude":16.860415056287543}}
{"idDrone":4,"niveauBatterie":60,"droneAltitude":53,"vitesse":48,"espaceDisque":4615,"villeEtude":"NE","temperature":38,"time":1571310917570,"identifiable":true,"plaqueIdentifier":"YZY6476","violationCode":85,"summonsNumber":"1283294163","emplacement":{"latitude":66.01384690347336,"longitude":16.90465615566336}}
{"idDrone":4,"niveauBatterie":58,"droneAltitude":56,"vitesse":43,"espaceDisque":4593,"villeEtude":"UK","temperature":38,"time":1571310917570,"identifiable":false,"plaqueIdentifier":"XZ764G","violationCode":19,"summonsNumber":"1286282342","emplacement":{"latitude":66.98730087172923,"longitude":17.720074939716824}}
{"idDrone":4,"niveauBatterie":56,"droneAltitude":60,"vitesse":44,"espaceDisque":4584,"villeEtude":"AS","temperature":38,"time":1571310917570,"identifiable":true,"plaqueIdentifier":"91648MC","violationCode":66,"summonsNumber":"1283294138","emplacement":{"latitude":67.90341768021149,"longitude":18.60395019365524}}
{"idDrone":4,"niveauBatterie":54,"droneAltitude":61,"vitesse":28,"espaceDisque":4583,"villeEtude":"RI","temperature":38,"time":1571310917570,"identifiable":false,"plaqueIdentifier":"GAC2703","violationCode":24,"summonsNumber":"1283294229","emplacement":{"latitude":68.09745939555438,"longitude":19.25938871215753}}
{"idDrone":4,"niveauBatterie":52,"droneAltitude":63,"vitesse":31,"espaceDisque":4578,"villeEtude":"VF","temperature":38,"time":1571310917570,"identifiable":true,"plaqueIdentifier":"GAD1485","violationCode":75,"summonsNumber":"1286282330","emplacement":{"latitude":68.74597420676622,"longitude":19.543888616290676}}
{"idDrone":4,"niveauBatterie":50,"droneAltitude":67,"vitesse":74,"espaceDisque":4551,"villeEtude":"NE","temperature":38,"time":1571310917570,"identifiable":false,"plaqueIdentifier":"815M342","violationCode":46,"summonsNumber":"1283294138","emplacement":{"latitude":69.35033959372511,"longitude":20.403877468029044}}
{"idDrone":4,"niveauBatterie":48,"droneAltitude":69,"vitesse":51,"espaceDisque":4521,"villeEtude":"NJ","temperature":38,"time":1571310917570,"identifiable":true,"plaqueIdentifier":"GJA3452","violationCode":25,"summonsNumber":"1286282330","emplacement":{"latitude":70.0193230556639,"longitude":21.27300988644604}}
{"idDrone":4,"niveauBatterie":46,"droneAltitude":72,"vitesse":25,"espaceDisque":4493,"villeEtude":"UK","temperature":38,"time":1571310917570,"identifiable":false,"plaqueIdentifier":"GBH9379","violationCode":43,"summonsNumber":"1283983620","emplacement":{"latitude":70.50177027073956,"longitude":22.22053876446842}}
{"idDrone":4,"niveauBatterie":44,"droneAltitude":76,"vitesse":30,"espaceDisque":4493,"villeEtude":"RI","temperature":38,"time":1571310917570,"identifiable":true,"plaqueIdentifier":"GAC2703","violationCode":91,"summonsNumber":"1286036800","emplacement":{"latitude":71.07018378877787,"longitude":23.173992051158656}}
{"idDrone":4,"niveauBatterie":42,"droneAltitude":79,"vitesse":70,"espaceDisque":4477,"villeEtude":"NP","temperature":38,"time":1571310917570,"identifiable":true,"plaqueIdentifier":"YZY6476","violationCode":26,"summonsNumber":"1283294138","emplacement":{"latitude":71.65490924614912,"longitude":23.263428726966673}}
{"idDrone":4,"niveauBatterie":40,"droneAltitude":83,"vitesse":35,"espaceDisque":4441,"villeEtude":"OL","temperature":38,"time":1571310917570,"identifiable":true,"plaqueIdentifier":"M367CN","violationCode":75,"summonsNumber":"1283983825","emplacement":{"latitude":72.19090630973255,"longitude":23.82203218201349}}
{"idDrone":4,"niveauBatterie":38,"droneAltitude":85,"vitesse":65,"espaceDisque":4420,"villeEtude":"NY","temperature":38,"time":1571310917570,"identifiable":false,"plaqueIdentifier":"T60DAR","violationCode":34,"summonsNumber":"1286282342","emplacement":{"latitude":72.97216290374148,"longitude":24.63817962484006}}
{"idDrone":4,"niveauBatterie":36,"droneAltitude":86,"vitesse":67,"espaceDisque":4372,"villeEtude":"CT","temperature":38,"time":1571310917570,"identifiable":false,"plaqueIdentifier":"40793JY","violationCode":84,"summonsNumber":"1283983620","emplacement":{"latitude":73.72838781432849,"longitude":24.948530006187596}}
{"idDrone":4,"niveauBatterie":34,"droneAltitude":88,"vitesse":39,"espaceDisque":4333,"villeEtude":"OL","temperature":38,"time":1571310917570,"identifiable":false,"plaqueIdentifier":"63009MA","violationCode":14,"summonsNumber":"1286036800","emplacement":{"latitude":73.92233262765828,"longitude":25.797399718125607}}
{"idDrone":4,"niveauBatterie":32,"droneAltitude":91,"vitesse":47,"espaceDisque":4320,"villeEtude":"AS","temperature":38,"time":1571310917570,"identifiable":true,"plaqueIdentifier":"GAD1485","violationCode":84,"summonsNumber":"1283983631","emplacement":{"latitude":74.5212411918132,"longitude":26.781684242924996}}
{"idDrone":4,"niveauBatterie":30,"droneAltitude":93,"vitesse":25,"espaceDisque":4298,"villeEtude":"MP","temperature":38,"time":1571310917570,"identifiable":false,"plaqueIdentifier":"XZ764G","violationCode":75,"summonsNumber":"1283294138","emplacement":{"latitude":75.29240592660224,"longitude":27.528709187323134}}
{"idDrone":4,"niveauBatterie":28,"droneAltitude":94,"vitesse":31,"espaceDisque":4266,"villeEtude":"OL","temperature":38,"time":1571310917570,"identifiable":false,"plaqueIdentifier":"GJA3452","violationCode":46,"summonsNumber":"1286248000","emplacement":{"latitude":75.77583066927143,"longitude":27.675786078974042}}
{"idDrone":4,"niveauBatterie":26,"droneAltitude":95,"vitesse":77,"espaceDisque":4235,"villeEtude":"HF","temperature":38,"time":1571310917570,"identifiable":true,"plaqueIdentifier":"GAD1485","violationCode":75,"summonsNumber":"1283294138","emplacement":{"latitude":76.73884236562597,"longitude":28.252586198025476}}
{"idDrone":4,"niveauBatterie":92,"droneAltitude":12,"vitesse":70,"espaceDisque":4949,"villeEtude":"RI","temperature":38,"time":1571311196870,"identifiable":false,"plaqueIdentifier":"91648MC","violationCode":82,"summonsNumber":"1283983679","emplacement":{"latitude":60.227398422113986,"longitude":11.479146581151623}}
{"idDrone":4,"niveauBatterie":90,"droneAltitude":15,"vitesse":27,"espaceDisque":4946,"villeEtude":"UK","temperature":38,"time":1571311196870,"identifiable":true,"plaqueIdentifier":"GBH9379","violationCode":26,"summonsNumber":"1283294187","emplacement":{"latitude":60.892718333859584,"longitude":12.3561810474246}}
{"idDrone":4,"niveauBatterie":88,"droneAltitude":19,"vitesse":27,"espaceDisque":4915,"villeEtude":"99","temperature":38,"time":1571311196870,"identifiable":true,"plaqueIdentifier":"YZY6476","violationCode":75,"summonsNumber":"1283294163","emplacement":{"latitude":61.5479061441832,"longitude":12.898370369296382}}
{"idDrone":4,"niveauBatterie":86,"droneAltitude":22,"vitesse":23,"espaceDisque":4910,"villeEtude":"PA","temperature":38,"time":1571311196870,"identifiable":true,"plaqueIdentifier":"WBJ819","violationCode":24,"summonsNumber":"1286282330","emplacement":{"latitude":62.53732245418861,"longitude":13.221375569440998}}
{"idDrone":4,"niveauBatterie":84,"droneAltitude":24,"vitesse":63,"espaceDisque":4909,"villeEtude":"99","temperature":38,"time":1571311196870,"identifiable":true,"plaqueIdentifier":"63009MA","violationCode":91,"summonsNumber":"1283294229","emplacement":{"latitude":63.10372799497526,"longitude":13.557812232301183}}
{"idDrone":4,"niveauBatterie":82,"droneAltitude":28,"vitesse":63,"espaceDisque":4868,"villeEtude":"MD","temperature":38,"time":1571311196870,"identifiable":true,"plaqueIdentifier":"GAR6813","violationCode":91,"summonsNumber":"1286123550","emplacement":{"latitude":63.625339108780054,"longitude":13.826716566302768}}
{"idDrone":4,"niveauBatterie":80,"droneAltitude":29,"vitesse":47,"espaceDisque":4842,"villeEtude":"MP","temperature":38,"time":1571311196870,"identifiable":false,"plaqueIdentifier":"GJA3452","violationCode":55,"summonsNumber":"1283983620","emplacement":{"latitude":63.94521276881363,"longitude":14.826590095263784}}
{"idDrone":4,"niveauBatterie":78,"droneAltitude":33,"vitesse":65,"espaceDisque":4820,"villeEtude":"PA","temperature":38,"time":1571311196870,"identifiable":true,"plaqueIdentifier":"78755JZ","violationCode":82,"summonsNumber":"1286246416","emplacement":{"latitude":64.11185492567245,"longitude":15.746252132259071}}
{"idDrone":4,"niveauBatterie":76,"droneAltitude":36,"vitesse":77,"espaceDisque":4787,"villeEtude":"99","temperature":38,"time":1571311196870,"identifiable":false,"plaqueIdentifier":"GEN8674","violationCode":95,"summonsNumber":"1283983734","emplacement":{"latitude":64.52449043833778,"longitude":16.472911266627783}}
{"idDrone":4,"niveauBatterie":74,"droneAltitude":38,"vitesse":54,"espaceDisque":4758,"villeEtude":"NE","temperature":38,"time":1571311196870,"identifiable":true,"plaqueIdentifier":"GAR6813","violationCode":84,"summonsNumber":"1286246416","emplacement":{"latitude":64.73542447127748,"longitude":16.996974974565802}}
{"idDrone":4,"niveauBatterie":72,"droneAltitude":40,"vitesse":44,"espaceDisque":4743,"villeEtude":"CH","temperature":38,"time":1571311196870,"identifiable":false,"plaqueIdentifier":"91648MC","violationCode":12,"summonsNumber":"1283983734","emplacement":{"latitude":64.86370603948318,"longitude":17.53928086845671}}
{"idDrone":4,"niveauBatterie":70,"droneAltitude":43,"vitesse":42,"espaceDisque":4741,"villeEtude":"AS","temperature":38,"time":1571311196870,"identifiable":true,"plaqueIdentifier":"GBB9093","violationCode":75,"summonsNumber":"1286282330","emplacement":{"latitude":65.59298324192532,"longitude":17.91914043766221}}
{"idDrone":4,"niveauBatterie":68,"droneAltitude":44,"vitesse":76,"espaceDisque":4702,"villeEtude":"JK","temperature":38,"time":1571311196870,"identifiable":true,"plaqueIdentifier":"GAC2703","violationCode":12,"summonsNumber":"1283983679","emplacement":{"latitude":66.04078092191298,"longitude":18.08264393974246}}
{"idDrone":4,"niveauBatterie":66,"droneAltitude":47,"vitesse":78,"espaceDisque":4691,"villeEtude":"MA","temperature":38,"time":1571311196870,"identifiable":true,"plaqueIdentifier":"GBH9379","violationCode":19,"summonsNumber":"1286246416","emplacement":{"latitude":66.77427243389236,"longitude":18.113272511995504}}
{"idDrone":4,"niveauBatterie":64,"droneAltitude":51,"vitesse":50,"espaceDisque":4680,"villeEtude":"HF","temperature":38,"time":1571311196870,"identifiable":true,"plaqueIdentifier":"63009MA","violationCode":43,"summonsNumber":"1286246416","emplacement":{"latitude":67.04168996745427,"longitude":18.46407523437182}}
{"idDrone":4,"niveauBatterie":62,"droneAltitude":53,"vitesse":43,"espaceDisque":4677,"villeEtude":"CH","temperature":38,"time":1571311196870,"identifiable":false,"plaqueIdentifier":"GBB9093","violationCode":53,"summonsNumber":"1283294229","emplacement":{"latitude":67.77555329151448,"longitude":18.631118740390555}}
{"idDrone":4,"niveauBatterie":60,"droneAltitude":57,"vitesse":72,"espaceDisque":4639,"villeEtude":"99","temperature":38,"time":1571311196870,"identifiable":false,"plaqueIdentifier":"GEN8674","violationCode":25,"summonsNumber":"1286282330","emplacement":{"latitude":68.32526223281349,"longitude":19.046065182630727}}
{"idDrone":4,"niveauBatterie":58,"droneAltitude":58,"vitesse":51,"espaceDisque":4638,"villeEtude":"99","temperature":38,"time":1571311196870,"identifiable":false,"plaqueIdentifier":"40793JY","violationCode":24,"summonsNumber":"1283294175","emplacement":{"latitude":68.97651103783855,"longitude":20.04235864384446}}
{"idDrone":4,"niveauBatterie":56,"droneAltitude":61,"vitesse":46,"espaceDisque":4626,"villeEtude":"RI","temperature":38,"time":1571311196870,"identifiable":false,"plaqueIdentifier":"YZY6476","violationCode":66,"summonsNumber":"1283983631","emplacement":{"latitude":69.83137227383591,"longitude":20.970490038268267}}
{"idDrone":4,"niveauBatterie":54,"droneAltitude":62,"vitesse":70,"espaceDisque":4610,"villeEtude":"RI","temperature":38,"time":1571311196870,"identifiable":false,"plaqueIdentifier":"GJA3452","violationCode":66,"summonsNumber":"1283294187","emplacement":{"latitude":70.50116199744292,"longitude":21.076463414368504}}
{"idDrone":4,"niveauBatterie":90,"droneAltitude":17,"vitesse":76,"espaceDisque":4900,"villeEtude":"PA","temperature":38,"time":1571311414491,"identifiable":true,"plaqueIdentifier":"GBB9093","violationCode":23,"summonsNumber":"1286246416","emplacement":{"latitude":59.00319593512988,"longitude":10.827421037858926}}
{"idDrone":4,"niveauBatterie":88,"droneAltitude":20,"vitesse":38,"espaceDisque":4893,"villeEtude":"AS","temperature":38,"time":1571311414491,"identifiable":true,"plaqueIdentifier":"XZ764G","violationCode":86,"summonsNumber":"1283983667","emplacement":{"latitude":59.901225454225134,"longitude":11.312820689407644}}
{"idDrone":4,"niveauBatterie":86,"droneAltitude":23,"vitesse":43,"espaceDisque":4891,"villeEtude":"UK","temperature":38,"time":1571311414491,"identifiable":true,"plaqueIdentifier":"GBB9093","violationCode":55,"summonsNumber":"1286248000","emplacement":{"latitude":60.450423861105584,"longitude":11.562191966443546}}
{"idDrone":4,"niveauBatterie":84,"droneAltitude":27,"vitesse":36,"espaceDisque":4886,"villeEtude":"CT","temperature":38,"time":1571311414491,"identifiable":true,"plaqueIdentifier":"GAC2703","violationCode":75,"summonsNumber":"1286246416","emplacement":{"latitude":60.89266539898913,"longitude":12.047953971735073}}
